%YAML 1.1
%TAG !u! tag:unity3d.com,2011:
--- !u!1 &5283825207048478610
GameObject:
  m_ObjectHideFlags: 0
  m_CorrespondingSourceObject: {fileID: 0}
  m_PrefabInstance: {fileID: 0}
  m_PrefabAsset: {fileID: 0}
  serializedVersion: 6
  m_Component:
  - component: {fileID: 3576253583121505372}
  - component: {fileID: 1911908358687682312}
  m_Layer: 5
  m_Name: hair4
  m_TagString: Untagged
  m_Icon: {fileID: 0}
  m_NavMeshLayer: 0
  m_StaticEditorFlags: 0
  m_IsActive: 1
--- !u!224 &3576253583121505372
RectTransform:
  m_ObjectHideFlags: 0
  m_CorrespondingSourceObject: {fileID: 0}
  m_PrefabInstance: {fileID: 0}
  m_PrefabAsset: {fileID: 0}
  m_GameObject: {fileID: 5283825207048478610}
  m_LocalRotation: {x: -0, y: -0, z: -0, w: 1}
  m_LocalPosition: {x: 0, y: 0, z: 0}
  m_LocalScale: {x: 1, y: 1, z: 1}
  m_Children: []
  m_Father: {fileID: 0}
  m_RootOrder: 0
  m_LocalEulerAnglesHint: {x: 0, y: 0, z: 0}
  m_AnchorMin: {x: 0.5, y: 0.5}
  m_AnchorMax: {x: 0.5, y: 0.5}
  m_AnchoredPosition: {x: 0, y: 0}
  m_SizeDelta: {x: 100, y: 100}
  m_Pivot: {x: 0.5, y: 0.5}
--- !u!114 &1911908358687682312
MonoBehaviour:
  m_ObjectHideFlags: 0
  m_CorrespondingSourceObject: {fileID: 0}
  m_PrefabInstance: {fileID: 0}
  m_PrefabAsset: {fileID: 0}
  m_GameObject: {fileID: 5283825207048478610}
  m_Enabled: 1
  m_EditorHideFlags: 0
  m_Script: {fileID: 11500000, guid: 090f5bf5ba754f543a48a0680ab85467, type: 3}
  m_Name: 
  m_EditorClassIdentifier: 
  Price: 0
  Sprites:
  - {fileID: 21300000, guid: d897004d3a33a3a4a947a5dd14bbeca0, type: 3}
  - {fileID: 21300000, guid: a0f19c31e6172c941a8b2060b4a4b95e, type: 3}
  - {fileID: 21300000, guid: c01751578634e104aae4ac809cd09758, type: 3}
  - {fileID: 21300000, guid: 04fb4933dd4893442af616f4120b7e0e, type: 3}
  - {fileID: 21300000, guid: cf57517af0be8a04f99f456b207aadbb, type: 3}
  Icons:
  - {fileID: 21300000, guid: db9fb6cb09c091245b6f86d0de8bb444, type: 3}
  - {fileID: 21300000, guid: abe34094b563645438b3d029d032788c, type: 3}
  - {fileID: 21300000, guid: d02089499d4c42749a1f794e0ef82501, type: 3}
  - {fileID: 21300000, guid: e34db44ac2556d641a35192b381b53be, type: 3}
  - {fileID: 21300000, guid: 4c60485e51f32ab4d8c4fdd28f8a839d, type: 3}
  item:
    id: 0
    price: 0
    type: 0
  Type: 0
