
skeleton.png
size: 1941,177
format: RGBA8888
filter: Linear,Linear
repeat: none
Иллюстрация_без_названия-1
  rotate: false
  xy: 2, 148
  size: 6, 14
  orig: 256, 256
  offset: 125, 163
  index: -1
Иллюстрация_без_названия-10
  rotate: 270
  xy: 1769, 7
  size: 168, 51
  orig: 256, 256
  offset: 44, 163
  index: -1
Иллюстрация_без_названия-11
  rotate: 270
  xy: 1744, 6
  size: 171, 51
  orig: 256, 256
  offset: 42, 163
  index: -1
Иллюстрация_без_названия-12
  rotate: 270
  xy: 1713, 7
  size: 170, 52
  orig: 256, 256
  offset: 43, 162
  index: -1
Иллюстрация_без_названия-13
  rotate: 270
  xy: 1661, 6
  size: 171, 66
  orig: 256, 256
  offset: 42, 150
  index: -1
Иллюстрация_без_названия-14
  rotate: 270
  xy: 1589, 6
  size: 171, 78
  orig: 256, 256
  offset: 42, 136
  index: -1
Иллюстрация_без_названия-15
  rotate: 270
  xy: 1500, 6
  size: 171, 90
  orig: 256, 256
  offset: 42, 124
  index: -1
Иллюстрация_без_названия-16
  rotate: 270
  xy: 1396, 6
  size: 171, 105
  orig: 256, 256
  offset: 42, 111
  index: -1
Иллюстрация_без_названия-17
  rotate: true
  xy: 1286, 6
  size: 171, 117
  orig: 256, 256
  offset: 42, 99
  index: -1
Иллюстрация_без_названия-18
  rotate: 270
  xy: 1158, 6
  size: 171, 127
  orig: 256, 256
  offset: 42, 87
  index: -1
Иллюстрация_без_названия-19
  rotate: 180
  xy: 988, 21
  size: 171, 155
  orig: 256, 256
  offset: 43, 59
  index: -1
Иллюстрация_без_названия-2
  rotate: false
  xy: 64, 6
  size: 43, 31
  orig: 256, 256
  offset: 106, 163
  index: -1
Иллюстрация_без_названия-20
  rotate: false
  xy: 848, 11
  size: 170, 163
  orig: 256, 256
  offset: 43, 51
  index: -1
Иллюстрация_без_названия-21
  rotate: 180
  xy: 423, 8
  size: 171, 168
  orig: 256, 256
  offset: 42, 46
  index: -1
Иллюстрация_без_названия-22
  rotate: false
  xy: 2, 8
  size: 171, 169
  orig: 256, 256
  offset: 43, 46
  index: -1
Иллюстрация_без_названия-23
  rotate: 180
  xy: 139, 9
  size: 172, 168
  orig: 256, 256
  offset: 43, 46
  index: -1
Иллюстрация_без_названия-24
  rotate: false
  xy: 283, 9
  size: 170, 168
  orig: 256, 256
  offset: 43, 46
  index: -1
Иллюстрация_без_названия-25
  rotate: false
  xy: 564, 9
  size: 171, 168
  orig: 256, 256
  offset: 42, 46
  index: -1
Иллюстрация_без_названия-3
  rotate: true
  xy: 2, 109
  size: 68, 42
  orig: 256, 256
  offset: 94, 163
  index: -1
Иллюстрация_без_названия-4
  rotate: 270
  xy: 1888, 47
  size: 92, 50
  orig: 256, 256
  offset: 82, 163
  index: -1
Иллюстрация_без_названия-40
  rotate: 180
  xy: 706, 9
  size: 171, 168
  orig: 256, 256
  offset: 42, 46
  index: -1
Иллюстрация_без_названия-5
  rotate: 270
  xy: 1864, 42
  size: 102, 51
  orig: 256, 256
  offset: 77, 163
  index: -1
Иллюстрация_без_названия-6
  rotate: 270
  xy: 1840, 34
  size: 118, 51
  orig: 256, 256
  offset: 69, 163
  index: -1
Иллюстрация_без_названия-7
  rotate: 270
  xy: 1817, 25
  size: 137, 51
  orig: 256, 256
  offset: 60, 163
  index: -1
Иллюстрация_без_названия-8
  rotate: false
  xy: 1064, 4
  size: 150, 51
  orig: 256, 256
  offset: 53, 163
  index: -1
Иллюстрация_без_названия-9
  rotate: 270
  xy: 1794, 12
  size: 162, 51
  orig: 256, 256
  offset: 47, 163
  index: -1
